{
    "name": "MainControls",
    "maps": [
        {
            "name": "FreeroamCamera",
            "id": "d645be77-c65f-4c2e-b211-c13a306434f9",
            "actions": [
                {
                    "name": "Left",
                    "type": "Button",
                    "id": "e64a326a-de10-4248-91dc-5491ba16d6d9",
                    "expectedControlType": "Button",
                    "processors": "",
                    "interactions": ""
                },
                {
                    "name": "Right",
                    "type": "Button",
                    "id": "3afb8cdf-30a5-4c6f-a0df-1fd954e69945",
                    "expectedControlType": "Button",
                    "processors": "",
                    "interactions": ""
                },
                {
                    "name": "Forward",
                    "type": "Button",
                    "id": "3a9322dd-7e07-4da7-880c-ec39bcc41f41",
                    "expectedControlType": "Button",
                    "processors": "",
                    "interactions": ""
                },
                {
                    "name": "Backward",
                    "type": "Button",
                    "id": "0bf30c54-f0d8-416d-9022-265a88e5e801",
                    "expectedControlType": "Button",
                    "processors": "",
                    "interactions": ""
                },
                {
                    "name": "Up",
                    "type": "Button",
                    "id": "0761f710-e87e-49c6-b2b5-b7fe71cfa0a4",
                    "expectedControlType": "Button",
                    "processors": "",
                    "interactions": ""
                },
                {
                    "name": "Down",
                    "type": "Button",
                    "id": "01eff141-19a9-49dd-be9f-29e7aed0f1ea",
                    "expectedControlType": "Button",
                    "processors": "",
                    "interactions": ""
                },
                {
                    "name": "ViewRotation",
                    "type": "Value",
                    "id": "3941d0e1-7af3-4628-b99a-316809a52317",
                    "expectedControlType": "Vector2",
                    "processors": "",
                    "interactions": ""
                },
                {
                    "name": "Test",
                    "type": "Button",
                    "id": "da7a6221-1071-4902-9673-a0123e1c195d",
                    "expectedControlType": "Button",
                    "processors": "",
                    "interactions": ""
                }
            ],
            "bindings": [
                {
                    "name": "",
                    "id": "e2374ab7-2f5c-406a-91e1-09e1127ad99f",
                    "path": "<Keyboard>/a",
                    "interactions": "",
                    "processors": "",
                    "groups": "",
                    "action": "Left",
                    "isComposite": false,
                    "isPartOfComposite": false
                },
                {
                    "name": "",
                    "id": "02e1db90-eb1f-430a-ad9f-8fcce7abf3ac",
                    "path": "<Keyboard>/d",
                    "interactions": "",
                    "processors": "",
                    "groups": "",
                    "action": "Right",
                    "isComposite": false,
                    "isPartOfComposite": false
                },
                {
                    "name": "",
                    "id": "9211e7f8-43c9-4c74-bda2-3c20324e9f23",
                    "path": "<Keyboard>/w",
                    "interactions": "",
                    "processors": "",
                    "groups": "",
                    "action": "Forward",
                    "isComposite": false,
                    "isPartOfComposite": false
                },
                {
                    "name": "",
                    "id": "e5a8de97-1594-490e-99ac-760687e84e7c",
                    "path": "<Keyboard>/s",
                    "interactions": "",
                    "processors": "",
                    "groups": "",
                    "action": "Backward",
                    "isComposite": false,
                    "isPartOfComposite": false
                },
                {
                    "name": "",
                    "id": "37aaeb96-9b9c-49df-bca3-c442daff33ab",
                    "path": "<Keyboard>/e",
                    "interactions": "",
                    "processors": "",
                    "groups": "",
                    "action": "Up",
                    "isComposite": false,
                    "isPartOfComposite": false
                },
                {
                    "name": "",
                    "id": "10276dbc-6971-4bc8-8dea-b99f08c9a2ab",
                    "path": "<Keyboard>/q",
                    "interactions": "",
                    "processors": "",
                    "groups": "",
                    "action": "Down",
                    "isComposite": false,
                    "isPartOfComposite": false
                },
                {
                    "name": "",
                    "id": "fd1b0aa8-6bcf-4d9b-8aa9-7a51e9920556",
                    "path": "<Mouse>/delta",
                    "interactions": "",
                    "processors": "",
                    "groups": "",
                    "action": "ViewRotation",
                    "isComposite": false,
                    "isPartOfComposite": false
                },
                {
                    "name": "",
                    "id": "3c71e330-955c-44d6-89bf-b81b07097e6a",
                    "path": "<Keyboard>/enter",
                    "interactions": "",
                    "processors": "",
                    "groups": "",
                    "action": "Test",
                    "isComposite": false,
                    "isPartOfComposite": false
                }
            ]
        }
    ],
    "controlSchemes": []
}